  ___                                   _____             _
 / _ \                                 /  __ \           | |
/ /_\ \__   __ ___  _ __   _   _   ___ | /  \/  ___    __| |  ___
|  _  |\ \ / // _ \| '_ \ | | | | / _ \| |     / _ \  / _` | / _ \
| | | | \ V /|  __/| | | || |_| ||  __/| \__/\| (_) || (_| ||  __/
\_| |_/  \_/  \___||_| |_| \__,_| \___| \____/ \___/  \__,_| \___|
