-------------------------------------------------------------------------------
Test set: com.br.avenuecode.avenuecode.AvenuecodeApplicationTests
-------------------------------------------------------------------------------
Tests run: 14, Failures: 0, Errors: 0, Skipped: 0, Time elapsed: 18.633 sec - in com.br.avenuecode.avenuecode.AvenuecodeApplicationTests
